<svg width="20" height="16" viewBox="0 0 20 16" xmlns="http://www.w3.org/2000/svg">
<path d="M4.21091 0.702909C4.098 0.584778 3.9433 0.51557 3.77998 0.510114C3.61665 0.504658 3.45769 0.563388 3.33714 0.673721C3.21659 0.784053 3.14405 0.937211 3.13506 1.10038C3.12607 1.26355 3.18134 1.42375 3.28904 1.54666L4.78904 3.1951C1.9531 4.93728 0.73435 7.62478 0.679662 7.74978C0.645051 7.82996 0.627197 7.91636 0.627197 8.00369C0.627197 8.09102 0.645051 8.17742 0.679662 8.2576C0.7031 8.31228 1.36716 9.78103 2.83591 11.2576C4.79685 13.2107 7.27341 14.2498 9.99998 14.2498C11.4007 14.2554 12.7872 13.968 14.0703 13.406L15.789 15.2967C15.8476 15.3606 15.9188 15.4117 15.9981 15.4467C16.0775 15.4817 16.1633 15.4998 16.25 15.4998C16.4059 15.4983 16.5559 15.4399 16.6719 15.3357C16.7333 15.2809 16.7831 15.2143 16.8184 15.1399C16.8538 15.0655 16.8738 14.9848 16.8775 14.9025C16.8811 14.8203 16.8682 14.7381 16.8396 14.6609C16.811 14.5837 16.7673 14.513 16.7109 14.4529L4.21091 0.702909ZM7.90623 6.6326L11.164 10.2107C10.8057 10.4013 10.4059 10.5006 9.99998 10.4998C9.54941 10.4999 9.10717 10.3783 8.72005 10.1477C8.33294 9.91717 8.01532 9.58629 7.8008 9.19006C7.58628 8.79384 7.48282 8.347 7.50138 7.89681C7.51994 7.44663 7.65982 7.00982 7.90623 6.6326ZM9.99998 12.9998C7.59373 12.9998 5.49216 12.1248 3.75779 10.3982C3.03925 9.69386 2.43087 8.88531 1.9531 7.99978C2.32029 7.31228 3.49998 5.3826 5.64841 4.14041L7.05466 5.68728C6.51261 6.38438 6.23395 7.25041 6.26777 8.13281C6.30158 9.01521 6.64571 9.85736 7.23952 10.5109C7.83334 11.1645 8.63874 11.5876 9.51387 11.7056C10.389 11.8236 11.2777 11.629 12.0234 11.156L13.1719 12.4217C12.1594 12.809 11.0839 13.005 9.99998 12.9998ZM19.3203 8.2576C19.289 8.32791 18.5 10.0779 16.7109 11.6795C16.5962 11.7797 16.4492 11.8352 16.2969 11.8357C16.2092 11.8368 16.1224 11.8184 16.0427 11.7819C15.963 11.7454 15.8924 11.6918 15.8359 11.6248C15.781 11.5637 15.7387 11.4925 15.7113 11.4151C15.684 11.3377 15.6721 11.2556 15.6765 11.1737C15.6808 11.0917 15.7013 11.0114 15.7367 10.9373C15.7721 10.8632 15.8217 10.7969 15.8828 10.742C16.756 9.95868 17.488 9.03111 18.0469 7.99978C17.5678 7.11276 16.9596 6.30183 16.2422 5.59353C14.5078 3.87478 12.4062 2.99978 9.99998 2.99978C9.49211 2.99774 8.98502 3.03956 8.48435 3.12478C8.32094 3.14975 8.15424 3.10977 8.01992 3.01341C7.8856 2.91705 7.79432 2.77196 7.7656 2.60916C7.7522 2.5281 7.75491 2.4452 7.77357 2.36519C7.79224 2.28518 7.8265 2.20963 7.87439 2.14288C7.92228 2.07612 7.98286 2.01946 8.05267 1.97614C8.12248 1.93282 8.20015 1.90369 8.28123 1.89041C8.84923 1.79577 9.42414 1.74874 9.99998 1.74978C12.7265 1.74978 15.2031 2.78885 17.164 4.74197C18.6328 6.21853 19.2969 7.68728 19.3203 7.74978C19.3549 7.82996 19.3728 7.91636 19.3728 8.00369C19.3728 8.09102 19.3549 8.17742 19.3203 8.2576ZM10.4687 5.54666C10.3877 5.53127 10.3104 5.50007 10.2415 5.45483C10.1725 5.4096 10.1131 5.35122 10.0666 5.28303C9.97286 5.1453 9.93764 4.97597 9.96872 4.81228C9.9998 4.6486 10.0946 4.50396 10.2324 4.41019C10.3701 4.31642 10.5394 4.2812 10.7031 4.31228C11.5 4.46815 12.2254 4.87694 12.7715 5.47792C13.3176 6.07891 13.6553 6.84004 13.7344 7.64822C13.7496 7.81288 13.6989 7.97687 13.5935 8.10426C13.4881 8.23166 13.3365 8.31208 13.1719 8.32791H13.1094C12.9547 8.32852 12.8055 8.27105 12.6912 8.16689C12.5769 8.06272 12.5059 7.91944 12.4922 7.76541C12.4383 7.22719 12.2123 6.72068 11.8478 6.32101C11.4833 5.92134 10.9997 5.6498 10.4687 5.54666Z" />
</svg>
