<svg width="800px" height="800px" viewBox="0 0 24 24" fill="none" xmlns="http://www.w3.org/2000/svg">
<path d="M12 18.75C6.17 18.75 3.43 12.56 3.31 12.3C3.27039 12.2049 3.25 12.103 3.25 12C3.25 11.897 3.27039 11.7951 3.31 11.7C3.43 11.44 6.17 5.25 12 5.25C17.83 5.25 20.57 11.44 20.69 11.7C20.7296 11.7951 20.75 11.897 20.75 12C20.75 12.103 20.7296 12.2049 20.69 12.3C20.57 12.56 17.83 18.75 12 18.75ZM4.83 12C5.42 13.15 7.83 17.25 12 17.25C16.17 17.25 18.58 13.15 19.17 12C18.58 10.85 16.17 6.75 12 6.75C7.83 6.75 5.42 10.85 4.83 12Z" fill="#000000"/>
<path d="M12 15.25C11.3572 15.25 10.7289 15.0594 10.1944 14.7023C9.65994 14.3452 9.24338 13.8376 8.99739 13.2437C8.75141 12.6499 8.68705 11.9964 8.81245 11.366C8.93785 10.7355 9.24738 10.1564 9.7019 9.7019C10.1564 9.24738 10.7355 8.93785 11.366 8.81245C11.9964 8.68705 12.6499 8.75141 13.2437 8.99739C13.8376 9.24338 14.3452 9.65994 14.7023 10.1944C15.0594 10.7289 15.25 11.3572 15.25 12C15.2474 12.8611 14.9041 13.6863 14.2952 14.2952C13.6863 14.9041 12.8611 15.2474 12 15.25ZM12 10.25C11.6539 10.25 11.3155 10.3526 11.0278 10.5449C10.74 10.7372 10.5157 11.0105 10.3832 11.3303C10.2508 11.6501 10.2161 12.0019 10.2836 12.3414C10.3512 12.6809 10.5178 12.9927 10.7626 13.2374C11.0073 13.4822 11.3191 13.6489 11.6586 13.7164C11.9981 13.7839 12.3499 13.7492 12.6697 13.6168C12.9895 13.4843 13.2628 13.26 13.4551 12.9722C13.6474 12.6845 13.75 12.3461 13.75 12C13.7474 11.5367 13.5622 11.0931 13.2345 10.7655C12.9069 10.4378 12.4633 10.2526 12 10.25Z" fill="#000000"/>
</svg>