<svg width="19" height="16" viewBox="0 0 19 16" xmlns="http://www.w3.org/2000/svg">
<path d="M9.49992 15.3331C9.39037 15.3342 9.28246 15.3078 9.18696 15.2568C8.84189 15.0734 0.833252 10.7422 0.833252 5.24983C0.833252 4.28787 1.15121 3.35029 1.74209 2.56991C2.33296 1.78953 3.1668 1.2059 4.12549 0.901705C5.08418 0.597507 6.11911 0.588158 7.08369 0.874983C8.04827 1.16181 8.89359 1.73027 9.49992 2.49983C10.1062 1.73027 10.9516 1.16181 11.9161 0.874983C12.8807 0.588158 13.9157 0.597507 14.8743 0.901705C15.833 1.2059 16.6669 1.78953 17.2578 2.56991C17.8486 3.35029 18.1666 4.28787 18.1666 5.24983C18.1666 7.58732 16.7462 9.98593 13.9456 12.3845C12.6739 13.4728 11.2892 14.4352 9.81288 15.2568C9.71738 15.3078 9.60946 15.3342 9.49992 15.3331ZM5.64807 1.88872C4.71162 1.88872 3.81353 2.24284 3.15137 2.87317C2.4892 3.5035 2.1172 4.35841 2.1172 5.24983C2.1172 9.46649 8.05547 13.1713 9.49992 14.0116C10.9444 13.1713 16.8826 9.46649 16.8826 5.24983C16.8834 4.47282 16.6013 3.71957 16.0844 3.11823C15.5675 2.51689 14.8476 2.10461 14.0474 1.95153C13.2471 1.79846 12.4159 1.91404 11.6951 2.27862C10.9742 2.6432 10.4084 3.23425 10.0937 3.95122C10.0454 4.0633 9.9631 4.15917 9.85737 4.22664C9.75163 4.29411 9.62721 4.33013 9.49992 4.33013C9.37263 4.33013 9.24821 4.29411 9.14247 4.22664C9.03674 4.15917 8.95446 4.0633 8.90609 3.95122C8.63889 3.33878 8.18652 2.81575 7.60644 2.44852C7.02635 2.0813 6.34471 1.88645 5.64807 1.88872Z"/>
</svg>
