<svg width="18" height="18" viewBox="0 0 18 18" fill="none" xmlns="http://www.w3.org/2000/svg">
<path d="M4.12577 10.2422L8.52586 17.1148C8.57674 17.1943 8.6468 17.2597 8.72958 17.305C8.81237 17.3503 8.90522 17.374 8.99959 17.374C9.09396 17.374 9.18681 17.3503 9.26959 17.305C9.35238 17.2597 9.42244 17.1943 9.47332 17.1148L13.8735 10.2421C14.6363 9.20724 15.0463 7.95459 15.0429 6.66898C15.0429 3.33669 12.3319 0.625619 8.99959 0.625619C5.66723 0.625619 2.95623 3.33662 2.95623 6.66898C2.95284 7.95463 3.36286 9.20732 4.12577 10.2422V10.2422ZM8.99959 1.75062C11.7115 1.75062 13.9179 3.95696 13.9179 6.66898C13.9208 7.72039 13.5839 8.74459 12.9574 9.58899C12.95 9.59911 12.9428 9.60947 12.9361 9.62006L8.99959 15.7683L5.06325 9.62003C5.0565 9.60941 5.04937 9.59905 5.04187 9.58895C4.41534 8.74459 4.07839 7.7204 4.08123 6.66898C4.08123 3.95699 6.28764 1.75062 8.99959 1.75062V1.75062Z" fill="#FFD600"/>
<path fill-rule="evenodd" clip-rule="evenodd" d="M9 8.625C10.0355 8.625 10.875 7.78553 10.875 6.75C10.875 5.71447 10.0355 4.875 9 4.875C7.96447 4.875 7.125 5.71447 7.125 6.75C7.125 7.78553 7.96447 8.625 9 8.625ZM9 9.75C10.6569 9.75 12 8.40685 12 6.75C12 5.09315 10.6569 3.75 9 3.75C7.34315 3.75 6 5.09315 6 6.75C6 8.40685 7.34315 9.75 9 9.75Z" fill="#FFD600"/>
</svg>
