<svg width="18" height="18" viewBox="0 0 18 18" fill="none" xmlns="http://www.w3.org/2000/svg">
<path d="M17.9947 16.6083C17.9911 16.5079 17.9301 16.4083 17.8873 16.3153C17.8249 16.1746 17.7096 16.0421 17.6943 15.8985C17.296 11.968 14.7724 8.95011 11.0785 8.0052C10.7788 7.93195 10.4748 7.87262 10.1831 7.80889C10.0931 6.4787 9.79564 5.98427 9.04103 6.00038C8.75524 6.01681 8.48006 6.11542 8.24797 6.28459C7.73281 6.65889 7.8489 7.25953 7.83512 7.80596C7.52021 7.87335 7.22345 7.92609 6.93249 8.0008C3.31764 8.92447 0.765038 11.8867 0.345651 15.6333C0.315176 15.9087 0.364516 16.2193 0.0554176 16.3973C0.00825476 16.4237 0.00752917 16.5541 0.00607801 16.6361C0.000273346 16.9533 0.00898034 17.2712 0.000273346 17.5869C-0.00698248 17.8843 0.130153 18 0.418935 18C6.13749 17.9966 11.8556 17.9966 17.5732 18H17.6457C17.8859 18 17.9984 17.8725 17.9976 17.6338C17.9947 17.2939 18.0063 16.9489 17.9947 16.6083ZM8.66881 6.7021C8.75953 6.65217 8.85991 6.6227 8.96301 6.61575C9.0661 6.60879 9.16947 6.62451 9.26597 6.66182C9.71438 6.8757 9.5562 7.32106 9.57651 7.73564H8.43953C8.4359 7.36281 8.28933 6.95188 8.66881 6.7021ZM8.50918 8.35167C13.2654 8.05061 16.9615 11.8412 17.1066 16.2223H0.921038C0.881131 12.8748 3.62819 8.66151 8.50918 8.35167ZM17.3997 17.3869H0.60033V16.8456H17.3997V17.3869Z" fill="black"/>
<path d="M8 5.47644L8.51395 6C8.74596 5.73822 8.942 5.49519 9.16153 5.27163C9.91189 4.51082 9.93245 3.59279 9.20705 2.79808C8.72173 2.26659 8.72394 1.66731 9.23568 1.16394C9.46696 0.936779 9.73348 0.744952 10 0.523558L9.48605 0C9.25551 0.261779 9.05947 0.504808 8.83994 0.729808C8.08811 1.49063 8.06608 2.40577 8.79148 3.20264C9.27606 3.73558 9.27606 4.33341 8.76579 4.83678C8.53157 5.06466 8.26432 5.25649 8 5.47644Z" fill="black"/>
<path d="M4 7.50506L4.49513 8C4.71735 7.76752 4.9154 7.54234 5.13294 7.33471C5.97583 6.53052 6.00234 5.62398 5.19922 4.77592C4.70643 4.25466 4.71423 3.6464 5.23899 3.14488C5.48226 2.91239 5.75283 2.70623 6 2.49421L5.49942 2C5.27875 2.23102 5.0807 2.4562 4.86316 2.66382C4.01871 3.46801 3.99142 4.37163 4.79298 5.22261C5.28655 5.74461 5.27953 6.35141 4.76023 6.85512C4.51384 7.08688 4.24483 7.29377 4 7.50506Z" fill="black"/>
<path d="M13 7.49508L13.1366 7.56284C13.2423 7.69253 13.3488 7.82149 13.4949 8C13.7305 7.75228 13.9442 7.52131 14.1645 7.2969C14.9031 6.54572 14.9266 5.59927 14.2239 4.82477C13.71 4.25792 13.7151 3.65902 14.2658 3.12277C14.4897 2.90419 14.7518 2.7235 15 2.52605L14.8656 2.45319L14.4985 2C14.2599 2.26011 14.0529 2.49763 13.8326 2.72204C13.094 3.47614 13.0675 4.41749 13.7709 5.19417C14.2849 5.76321 14.2812 6.35993 13.732 6.89763C13.5059 7.11621 13.2445 7.2969 13 7.49508Z" fill="black"/>
<path d="M2 14.932L2.46318 15C3.31671 11.5716 5.49656 9.76218 9 9.49008V9.00031C5.09248 8.96426 2.28794 12.0675 2 14.932Z" fill="black"/>
</svg>
