<svg width="20" height="19" viewBox="0 0 20 19" xmlns="http://www.w3.org/2000/svg">
<path d="M19.2831 6.69649L13.3323 5.83165L10.6722 0.438681C10.5995 0.291024 10.48 0.171493 10.3323 0.0988368C9.96199 -0.0839757 9.51199 0.0683681 9.32684 0.438681L6.66668 5.83165L0.715901 6.69649C0.551838 6.71993 0.401838 6.79727 0.286995 6.91446C0.148155 7.05716 0.0716479 7.24915 0.0742847 7.44823C0.0769216 7.64731 0.158487 7.83721 0.301057 7.97618L4.60653 12.1738L3.58934 18.1012C3.56549 18.2391 3.58074 18.3809 3.63338 18.5105C3.68602 18.6402 3.77394 18.7525 3.88716 18.8347C4.00038 18.9169 4.13437 18.9658 4.27395 18.9758C4.41352 18.9857 4.5531 18.9564 4.67684 18.891L9.99949 16.0926L15.3222 18.891C15.4675 18.9684 15.6362 18.9941 15.7979 18.966C16.2057 18.8957 16.48 18.509 16.4097 18.1012L15.3925 12.1738L19.6979 7.97618C19.8151 7.86134 19.8925 7.71134 19.9159 7.54727C19.9792 7.13712 19.6932 6.75743 19.2831 6.69649Z"/>
</svg>
